{
    "0": {
        "value": "306",
        "label": "Diverses couleurs"
    },
    "1": {
        "value": "316",
        "label": "Le Champagne"
    },
    "2": {
        "value": "315",
        "label": "Le Cidre"
    },
    "3": {
        "value": "32",
        "label": "Vin blanc"
    },
    "4": {
        "value": "31",
        "label": "Vin rosé"
    },
    "5": {
        "value": "30",
        "label": "Vin rouge"
    },
}